# system info avmm_slave_bfm on 2018.01.30.02:49:31
system_info:
name,value
DEVICE,Unknown
DEVICE_FAMILY,Arria V GZ
GENERATION_ID,1517266170
#
#
# Files generated for avmm_slave_bfm on 2018.01.30.02:49:31
files:
filepath,kind,attributes,module,is_top
simulation/avmm_slave_bfm.v,VERILOG,,avmm_slave_bfm,true
simulation/submodules/verbosity_pkg.sv,SYSTEM_VERILOG, COMMON_SYSTEMVERILOG_PACKAGE=avalon_vip_verbosity_pkg,altera_avalon_mm_slave_bfm,false
simulation/submodules/avalon_mm_pkg.sv,SYSTEM_VERILOG, COMMON_SYSTEMVERILOG_PACKAGE=avalon_vip_avalon_mm_pkg,altera_avalon_mm_slave_bfm,false
simulation/submodules/avalon_utilities_pkg.sv,SYSTEM_VERILOG, COMMON_SYSTEMVERILOG_PACKAGE=avalon_vip_avalon_utilities_pkg,altera_avalon_mm_slave_bfm,false
simulation/submodules/altera_avalon_mm_slave_bfm.sv,SYSTEM_VERILOG,,altera_avalon_mm_slave_bfm,false
#
# Map from instance-path to kind of module
instances:
instancePath,module
avmm_slave_bfm.mm_slave_bfm_0,altera_avalon_mm_slave_bfm
